{
  "root": {
    "path": "../../",
    "src": "assets",
    "dest": "build",
    "production": "styleguide"
  },
  "production": {
    "rev": true
  },
  "proxy":{
    "browserSyncConfig": {
      "proxy": "http://127.0.0.1:8080/"
    },
    "dest": "../build"
  },
  "assets": {
    "assetTasks": ["fonts", "icons", "images"],
    "codeTasks": ["styles", "javascript"],
    "dest": "build"
  },
  "fractal": {
    "project": {
      "title": "Spacecraft component library"
    },
    "path": {
      "components": "components",
      "docs": "documentation",
      "static": "build"
    },
    "syncOptions": {
      "open": true,
      "notify": true
    },
    "templateEngine": "twig",
    "templateSettings": {},
    "templateExtension": ".twig",
    "themeSettings": {
      "skin": "black",
      "nav": ["docs", "components"],
      "lang": "en",
      "panels": ["notes","html", "view", "context", "resources"],
      "styles": ["/temp/theme/css/fractal.css"]
    },
    "templateOverride": "/_fractal/views"
  },
  "tasks": {
    "styles": {
      "src": ["assets/styles", "components"],
      "dest": "styles",
      "autoprefixer": {
        "browsers": ["last 3 versions"]
      },
      "sass": {
        "indentedSyntax": false,
        "outputStyle": "compressed"
      },
      "extensions": ["sass", "scss", "css"]
    },
    "fonts": {
      "src": "fonts",
      "dest": "fonts",
      "extensions": ["woff2", "woff", "eot", "ttf", "svg"]
    },
    "icons": {
      "src": "icons",
      "dest": "icons",
      "extensions": ["*"],
      "config": {
        "mode": {
          "symbol": {
            "dest": "../icons",
            "sprite": "icons.svg",
            "example": false
          }
        }
      }
    },
    "images": {
      "src": "images",
      "dest": "images",
      "extensions": ["jpg", "png", "svg", "gif"]
    },
    "javascript": {
      "src": "javascript",
      "dest": "javascript",
      "entries": {
        "app": ["./site.js"]
      },
      "extensions": ["js", "json"],
      "babel": {
        "presets": ["es2015", "stage-1"],
        "plugins": []
      },
      "extractSharedJs": false
    },
    "static": {
      "src": "static",
      "dest": "./",
      "extensions": ["*"]
    },
    "temp": {
      "src": "temp",
      "dest": "temp",
      "extensions": ["*"]
    }
  },
  "import": {
    "view": {
      "src": "view",
      "dest": "components",
      "extensions": ["html", "twig", "json", "md", "scss", "css"]
    },
    "javascript": {
      "src": "javascript",
      "dest": "javascript/modules",
      "extensions": ["js", ""]
    },
    "images": {
      "src": "images",
      "dest": "images",
      "extensions": ["jpg", "jpeg", "png", "gif", "*"]
    },
    "icons": {
      "src": "icons",
      "dest": "icons",
      "extensions": ["svg", "*"]
    },
    "docs": {
      "src": "documentation",
      "dest": "documentation",
      "extensions": ["md", "*"]
    }
  }
}
